{
  "project_info": {
    "project_number": "149538161983",
    "project_id": "firebase-world"
  },
  "client": [
    {
      "client_info": {
        "mobilesdk_app_id": "1:149538161983:android:7d0b931dbeeaa2d9",
        "android_client_info": {
          "package_name": "com.site_name.a510world"
        }
      },
      "oauth_client": [
        {
          "client_id": "149538161983-pkt5u3006atc0e5gtbu9hts2tabc0c5b.apps.googleusercontent.com",
          "client_type": 1,
          "android_info": {
            "package_name": "com.site_name.a510world",
            "certificate_hash": "A68648EE983D42FCD5189752DDE3E31B6B538FCE"
          }
        },
        {
          "client_id": "149538161983-i3l29ckbq31k9agsr62i9bfh7dba58ig.apps.googleusercontent.com",
          "client_type": 3
        }
      ],
      "api_key": [
        {
          "current_key": "AIzaSyDyz5uOHmbgM2SsQRW7uG9VROQWWCzz-wg"
        }
      ],
      "services": {
        "analytics_service": {
          "status": 1
        },
        "appinvite_service": {
          "status": 1,
          "other_platform_oauth_client": []
        },
        "ads_service": {
          "status": 1
        }
      }
    }
  ],
  "configuration_version": "1"
}